lab2a-div/divider.vcd
$date
	Wed Feb  2 16:26:05 2022
$end
$version
	Icarus Verilog
$end
$timescale
	1ps
$end
$scope module test_divider $end
$var wire 16 ! o_div_remainder [15:0] $end
$var wire 16 " o_div_quotient [15:0] $end
$var wire 16 # o_1iter_remainder [15:0] $end
$var wire 16 $ o_1iter_quotient [15:0] $end
$var wire 16 % o_1iter_dividend [15:0] $end
$var reg 16 & exp_dividend [15:0] $end
$var reg 16 ' exp_quotient [15:0] $end
$var reg 16 ( exp_remainder [15:0] $end
$var reg 16 ) i_dividend [15:0] $end
$var reg 16 * i_divisor [15:0] $end
$var reg 16 + i_quotient [15:0] $end
$var reg 16 , i_remainder [15:0] $end
$var integer 32 - __ignore [31:0] $end
$var integer 32 . allTests [31:0] $end
$var integer 32 / divTests [31:0] $end
$var integer 32 0 errors [31:0] $end
$var integer 32 1 input_file [31:0] $end
$var integer 32 2 randomSeed [31:0] $end
$scope module div $end
$var wire 16 3 i_dividend [15:0] $end
$var wire 16 4 i_divisor [15:0] $end
$var wire 16 5 o_remainder [15:0] $end
$var wire 16 6 o_quotient [15:0] $end
$scope begin genblk1[1] $end
$scope module d0 $end
$var wire 16 7 i_dividend [15:0] $end
$var wire 16 8 i_divisor [15:0] $end
$var wire 16 9 i_quotient [15:0] $end
$var wire 16 : i_remainder [15:0] $end
$var wire 16 ; r_shift [15:0] $end
$var wire 1 < select $end
$var wire 16 = r_sub [15:0] $end
$var wire 16 > o_remainder [15:0] $end
$var wire 16 ? o_quotient [15:0] $end
$var wire 16 @ o_dividend [15:0] $end
$upscope $end
$upscope $end
$scope begin genblk1[2] $end
$scope module d0 $end
$var wire 16 A i_dividend [15:0] $end
$var wire 16 B i_divisor [15:0] $end
$var wire 16 C i_quotient [15:0] $end
$var wire 16 D i_remainder [15:0] $end
$var wire 16 E r_shift [15:0] $end
$var wire 1 F select $end
$var wire 16 G r_sub [15:0] $end
$var wire 16 H o_remainder [15:0] $end
$var wire 16 I o_quotient [15:0] $end
$var wire 16 J o_dividend [15:0] $end
$upscope $end
$upscope $end
$scope begin genblk1[3] $end
$scope module d0 $end
$var wire 16 K i_dividend [15:0] $end
$var wire 16 L i_divisor [15:0] $end
$var wire 16 M i_quotient [15:0] $end
$var wire 16 N i_remainder [15:0] $end
$var wire 16 O r_shift [15:0] $end
$var wire 1 P select $end
$var wire 16 Q r_sub [15:0] $end
$var wire 16 R o_remainder [15:0] $end
$var wire 16 S o_quotient [15:0] $end
$var wire 16 T o_dividend [15:0] $end
$upscope $end
$upscope $end
$scope begin genblk1[4] $end
$scope module d0 $end
$var wire 16 U i_dividend [15:0] $end
$var wire 16 V i_divisor [15:0] $end
$var wire 16 W i_quotient [15:0] $end
$var wire 16 X i_remainder [15:0] $end
$var wire 16 Y r_shift [15:0] $end
$var wire 1 Z select $end
$var wire 16 [ r_sub [15:0] $end
$var wire 16 \ o_remainder [15:0] $end
$var wire 16 ] o_quotient [15:0] $end
$var wire 16 ^ o_dividend [15:0] $end
$upscope $end
$upscope $end
$scope begin genblk1[5] $end
$scope module d0 $end
$var wire 16 _ i_dividend [15:0] $end
$var wire 16 ` i_divisor [15:0] $end
$var wire 16 a i_quotient [15:0] $end
$var wire 16 b i_remainder [15:0] $end
$var wire 16 c r_shift [15:0] $end
$var wire 1 d select $end
$var wire 16 e r_sub [15:0] $end
$var wire 16 f o_remainder [15:0] $end
$var wire 16 g o_quotient [15:0] $end
$var wire 16 h o_dividend [15:0] $end
$upscope $end
$upscope $end
$scope begin genblk1[6] $end
$scope module d0 $end
$var wire 16 i i_dividend [15:0] $end
$var wire 16 j i_divisor [15:0] $end
$var wire 16 k i_quotient [15:0] $end
$var wire 16 l i_remainder [15:0] $end
$var wire 16 m r_shift [15:0] $end
$var wire 1 n select $end
$var wire 16 o r_sub [15:0] $end
$var wire 16 p o_remainder [15:0] $end
$var wire 16 q o_quotient [15:0] $end
$var wire 16 r o_dividend [15:0] $end
$upscope $end
$upscope $end
$scope begin genblk1[7] $end
$scope module d0 $end
$var wire 16 s i_dividend [15:0] $end
$var wire 16 t i_divisor [15:0] $end
$var wire 16 u i_quotient [15:0] $end
$var wire 16 v i_remainder [15:0] $end
$var wire 16 w r_shift [15:0] $end
$var wire 1 x select $end
$var wire 16 y r_sub [15:0] $end
$var wire 16 z o_remainder [15:0] $end
$var wire 16 { o_quotient [15:0] $end
$var wire 16 | o_dividend [15:0] $end
$upscope $end
$upscope $end
$scope begin genblk1[8] $end
$scope module d0 $end
$var wire 16 } i_dividend [15:0] $end
$var wire 16 ~ i_divisor [15:0] $end
$var wire 16 !" i_quotient [15:0] $end
$var wire 16 "" i_remainder [15:0] $end
$var wire 16 #" r_shift [15:0] $end
$var wire 1 $" select $end
$var wire 16 %" r_sub [15:0] $end
$var wire 16 &" o_remainder [15:0] $end
$var wire 16 '" o_quotient [15:0] $end
$var wire 16 (" o_dividend [15:0] $end
$upscope $end
$upscope $end
$scope begin genblk1[9] $end
$scope module d0 $end
$var wire 16 )" i_dividend [15:0] $end
$var wire 16 *" i_divisor [15:0] $end
$var wire 16 +" i_quotient [15:0] $end
$var wire 16 ," i_remainder [15:0] $end
$var wire 16 -" r_shift [15:0] $end
$var wire 1 ." select $end
$var wire 16 /" r_sub [15:0] $end
$var wire 16 0" o_remainder [15:0] $end
$var wire 16 1" o_quotient [15:0] $end
$var wire 16 2" o_dividend [15:0] $end
$upscope $end
$upscope $end
$scope begin genblk1[10] $end
$scope module d0 $end
$var wire 16 3" i_dividend [15:0] $end
$var wire 16 4" i_divisor [15:0] $end
$var wire 16 5" i_quotient [15:0] $end
$var wire 16 6" i_remainder [15:0] $end
$var wire 16 7" r_shift [15:0] $end
$var wire 1 8" select $end
$var wire 16 9" r_sub [15:0] $end
$var wire 16 :" o_remainder [15:0] $end
$var wire 16 ;" o_quotient [15:0] $end
$var wire 16 <" o_dividend [15:0] $end
$upscope $end
$upscope $end
$scope begin genblk1[11] $end
$scope module d0 $end
$var wire 16 =" i_dividend [15:0] $end
$var wire 16 >" i_divisor [15:0] $end
$var wire 16 ?" i_quotient [15:0] $end
$var wire 16 @" i_remainder [15:0] $end
$var wire 16 A" r_shift [15:0] $end
$var wire 1 B" select $end
$var wire 16 C" r_sub [15:0] $end
$var wire 16 D" o_remainder [15:0] $end
$var wire 16 E" o_quotient [15:0] $end
$var wire 16 F" o_dividend [15:0] $end
$upscope $end
$upscope $end
$scope begin genblk1[12] $end
$scope module d0 $end
$var wire 16 G" i_dividend [15:0] $end
$var wire 16 H" i_divisor [15:0] $end
$var wire 16 I" i_quotient [15:0] $end
$var wire 16 J" i_remainder [15:0] $end
$var wire 16 K" r_shift [15:0] $end
$var wire 1 L" select $end
$var wire 16 M" r_sub [15:0] $end
$var wire 16 N" o_remainder [15:0] $end
$var wire 16 O" o_quotient [15:0] $end
$var wire 16 P" o_dividend [15:0] $end
$upscope $end
$upscope $end
$scope begin genblk1[13] $end
$scope module d0 $end
$var wire 16 Q" i_dividend [15:0] $end
$var wire 16 R" i_divisor [15:0] $end
$var wire 16 S" i_quotient [15:0] $end
$var wire 16 T" i_remainder [15:0] $end
$var wire 16 U" r_shift [15:0] $end
$var wire 1 V" select $end
$var wire 16 W" r_sub [15:0] $end
$var wire 16 X" o_remainder [15:0] $end
$var wire 16 Y" o_quotient [15:0] $end
$var wire 16 Z" o_dividend [15:0] $end
$upscope $end
$upscope $end
$scope begin genblk1[14] $end
$scope module d0 $end
$var wire 16 [" i_dividend [15:0] $end
$var wire 16 \" i_divisor [15:0] $end
$var wire 16 ]" i_quotient [15:0] $end
$var wire 16 ^" i_remainder [15:0] $end
$var wire 16 _" r_shift [15:0] $end
$var wire 1 `" select $end
$var wire 16 a" r_sub [15:0] $end
$var wire 16 b" o_remainder [15:0] $end
$var wire 16 c" o_quotient [15:0] $end
$var wire 16 d" o_dividend [15:0] $end
$upscope $end
$upscope $end
$scope begin genblk1[15] $end
$scope module d0 $end
$var wire 16 e" i_dividend [15:0] $end
$var wire 16 f" i_divisor [15:0] $end
$var wire 16 g" i_quotient [15:0] $end
$var wire 16 h" i_remainder [15:0] $end
$var wire 16 i" r_shift [15:0] $end
$var wire 1 j" select $end
$var wire 16 k" r_sub [15:0] $end
$var wire 16 l" o_remainder [15:0] $end
$var wire 16 m" o_quotient [15:0] $end
$var wire 16 n" o_dividend [15:0] $end
$upscope $end
$upscope $end
$scope begin genblk1[16] $end
$scope module d0 $end
$var wire 16 o" i_dividend [15:0] $end
$var wire 16 p" i_divisor [15:0] $end
$var wire 16 q" i_quotient [15:0] $end
$var wire 16 r" i_remainder [15:0] $end
$var wire 16 s" r_shift [15:0] $end
$var wire 1 t" select $end
$var wire 16 u" r_sub [15:0] $end
$var wire 16 v" o_remainder [15:0] $end
$var wire 16 w" o_quotient [15:0] $end
$var wire 16 x" o_dividend [15:0] $end
$upscope $end
$upscope $end
$upscope $end
$scope module divider_iter $end
$var wire 16 y" i_dividend [15:0] $end
$var wire 16 z" i_divisor [15:0] $end
$var wire 16 {" i_quotient [15:0] $end
$var wire 16 |" i_remainder [15:0] $end
$var wire 16 }" r_shift [15:0] $end
$var wire 1 ~" select $end
$var wire 16 !# r_sub [15:0] $end
$var wire 16 "# o_remainder [15:0] $end
$var wire 16 ## o_quotient [15:0] $end
$var wire 16 $# o_dividend [15:0] $end
$upscope $end
$scope task printPoints $end
$var reg 32 %# actual [31:0] $end
$var reg 32 &# possible [31:0] $end
$upscope $end
$upscope $end
$enddefinitions $end
#0
$dumpvars
bx &#
bx %#
b0 $#
b1 ##
b0 "#
b0 !#
0~"
b0 }"
b0 |"
b0 {"
b0 z"
b0 y"
b0 x"
b1111111111111111 w"
b0 v"
b0 u"
0t"
b0 s"
b0 r"
b111111111111111 q"
b0 p"
b0 o"
b0 n"
b111111111111111 m"
b0 l"
b0 k"
0j"
b0 i"
b0 h"
b11111111111111 g"
b0 f"
b0 e"
b0 d"
b11111111111111 c"
b0 b"
b0 a"
0`"
b0 _"
b0 ^"
b1111111111111 ]"
b0 \"
b0 ["
b0 Z"
b1111111111111 Y"
b0 X"
b0 W"
0V"
b0 U"
b0 T"
b111111111111 S"
b0 R"
b0 Q"
b0 P"
b111111111111 O"
b0 N"
b0 M"
0L"
b0 K"
b0 J"
b11111111111 I"
b0 H"
b0 G"
b0 F"
b11111111111 E"
b0 D"
b0 C"
0B"
b0 A"
b0 @"
b1111111111 ?"
b0 >"
b0 ="
b0 <"
b1111111111 ;"
b0 :"
b0 9"
08"
b0 7"
b0 6"
b111111111 5"
b0 4"
b0 3"
b0 2"
b111111111 1"
b0 0"
b0 /"
0."
b0 -"
b0 ,"
b11111111 +"
b0 *"
b0 )"
b0 ("
b11111111 '"
b0 &"
b0 %"
0$"
b0 #"
b0 ""
b1111111 !"
b0 ~
b0 }
b0 |
b1111111 {
b0 z
b0 y
0x
b0 w
b0 v
b111111 u
b0 t
b0 s
b0 r
b111111 q
b0 p
b0 o
0n
b0 m
b0 l
b11111 k
b0 j
b0 i
b0 h
b11111 g
b0 f
b0 e
0d
b0 c
b0 b
b1111 a
b0 `
b0 _
b0 ^
b1111 ]
b0 \
b0 [
0Z
b0 Y
b0 X
b111 W
b0 V
b0 U
b0 T
b111 S
b0 R
b0 Q
0P
b0 O
b0 N
b11 M
b0 L
b0 K
b0 J
b11 I
b0 H
b0 G
0F
b0 E
b0 D
b1 C
b0 B
b0 A
b0 @
b1 ?
b0 >
b0 =
0<
b0 ;
b0 :
b0 9
b0 8
b0 7
b0 6
b0 5
b0 4
b0 3
b10000000001011000100010000000000 2
b10000000000000000000000000000011 1
b0 0
bx /
b0 .
bx -
b0 ,
b0 +
b0 *
b0 )
bx (
bx '
bx &
b0 %
b1 $
b0 #
b0 "
b0 !
$end
#102000
b11010100100100 v"
b11010100100100 u"
b11010100100100 s"
b11010100100 X"
b11010100100 ^"
b1101010010010 l"
b1101010010010 r"
b11010100100 W"
b11010100100 U"
b1101010010010 k"
b1101010010010 i"
b11010100 :"
b11010100 @"
b1101010010 N"
b1101010010 T"
b110101001001 b"
b110101001001 h"
b11010100 9"
b11010100 7"
b1101010010 M"
b1101010010 K"
b110101001001 a"
b110101001001 _"
b1101010 0"
b1101010 6"
b110101001 D"
b110101001 J"
b1000000000000000 Z"
b1000000000000000 ["
b1101010 /"
b1101010 -"
b110101001 C"
b110101001 A"
b100000000000000 P"
b100000000000000 Q"
b11010 z
b11010 ""
b10000000000000 F"
b10000000000000 G"
b11010 y
b11010 w
b110101 &"
b110101 ,"
b1001000000000000 <"
b1001000000000000 ="
b110 f
b110 l
b110101 %"
b110101 #"
b100100000000000 2"
b100100000000000 3"
b110 e
b110 c
b1101 p
b1101 v
b10010000000000 ("
b10010000000000 )"
b1101 o
b1101 m
b1001001000000000 |
b1001001000000000 }
b11 \
b11 b
b100100100000000 r
b100100100000000 s
b1 R
b1 X
b11 [
b11 Y
b1010010010000000 h
b1010010010000000 i
b1 Q
b1 O
b101001001000000 ^
b101001001000000 _
b1010100100100000 T
b1010100100100000 U
b1101010010010000 J
b1101010010010000 K
b110101001001000 @
b110101001001000 A
b110101001001000 %
b110101001001000 $#
b11010100100100 7
b11010100100100 )
b11010100100100 3
b11010100100100 y"
#110000
b101111010000 X"
b101111010000 ^"
b10111101000000 l"
b10111101000000 r"
b101111010000 U"
b10111101000000 i"
b101111010000001 v"
b101111010000001 s"
b10111101000 N"
b10111101000 T"
b1011110100000 b"
b1011110100000 h"
b10111101000 K"
b1011110100000 _"
b1000000000000000 n"
b1000000000000000 o"
b101111010 :"
b101111010 @"
b100000000000000 d"
b100000000000000 e"
b101111010 7"
b1011110100 D"
b1011110100 J"
b10000000000000 Z"
b10000000000000 ["
b1011110100 A"
b1000000000000 P"
b1000000000000 Q"
b10111101 0"
b10111101 6"
b100000000000 F"
b100000000000 G"
b10111 p
b10111 v
b1011110 &"
b1011110 ,"
b10111101 -"
b10000000000 <"
b10000000000 ="
b10111 m
b101111 z
b101111 ""
b1011110 #"
b1000000000 2"
b1000000000 3"
b101 \
b101 b
b101111 w
b1000000100000000 ("
b1000000100000000 )"
b101 Y
b1011 f
b1011 l
b100000010000000 |
b100000010000000 }
b1011 c
b1010000001000000 r
b1010000001000000 s
b10 R
b10 X
b1101000000100000 h
b1101000000100000 i
b1 H
b1 N
b10 O
b1110100000010000 ^
b1110100000010000 _
b1 E
b1111010000001000 T
b1111010000001000 U
b111101000000100 J
b111101000000100 K
b101111010000001 !
b101111010000001 5
b0 "
b0 6
b0 ?
b0 C
b0 I
b0 M
b0 S
b0 W
b0 ]
b0 a
b0 g
b0 k
b0 q
b0 u
b0 {
b0 !"
b0 '"
b0 +"
b0 1"
b0 5"
b0 ;"
b0 ?"
b0 E"
b0 I"
b0 O"
b0 S"
b0 Y"
b0 ]"
b0 c"
b0 g"
b0 m"
b0 q"
b0 w"
b0 $
b0 ##
b1011110100000010 @
b1011110100000010 A
b1011110100000010 %
b1011110100000010 $#
1<
b10100111110111 =
1F
b10100111111000 G
1P
b10100111111001 Q
1Z
b10100111111100 [
1d
b10101000000010 e
1n
b10101000001110 o
1x
b10101000100110 y
1$"
b10101001010101 %"
1."
b10101010110100 /"
18"
b10101101110001 9"
1B"
b10110011101011 C"
1L"
b10111111011111 M"
1V"
b11010111000111 W"
1`"
b100000110010111 a"
1j"
b101100100110111 k"
1t"
b1000100001111000 u"
1~"
b10100111110111 !#
b1101011000001001 *
b1101011000001001 4
b1101011000001001 8
b1101011000001001 B
b1101011000001001 L
b1101011000001001 V
b1101011000001001 `
b1101011000001001 j
b1101011000001001 t
b1101011000001001 ~
b1101011000001001 *"
b1101011000001001 4"
b1101011000001001 >"
b1101011000001001 H"
b1101011000001001 R"
b1101011000001001 \"
b1101011000001001 f"
b1101011000001001 p"
b1101011000001001 z"
b101111010000001 7
b101111010000001 )
b101111010000001 3
b101111010000001 y"
b0 /
b1 .
#118000
b11 .
b10 /
b101111010000001 (
b0 '
#120000
b1010110011000 b"
b1010110011000 h"
b1010110011000 _"
b101011001100011 !
b101011001100011 5
b101011001100011 v"
b101011001100 X"
b101011001100 ^"
b101011001100011 s"
b101011001100 U"
b10101100110001 l"
b10101100110001 r"
b1010110 &"
b1010110 ,"
b10101100110 N"
b10101100110 T"
b10101100110001 i"
b1010110 #"
b10101100110 K"
b1100000000000000 d"
b1100000000000000 e"
b101011 z
b101011 ""
b1010110011 D"
b1010110011 J"
b110000000000000 Z"
b110000000000000 ["
b101011 w
b101011001 :"
b101011001 @"
b1010110011 A"
b11000000000000 P"
b11000000000000 Q"
b10101100 0"
b10101100 6"
b101011001 7"
b1100000000000 F"
b1100000000000 G"
b10101 p
b10101 v
b10101100 -"
b1000110000000000 <"
b1000110000000000 ="
b10101 m
b1100011000000000 2"
b1100011000000000 3"
b110001100000000 ("
b110001100000000 )"
b1010 f
b1010 l
b11000110000000 |
b11000110000000 }
b1010 c
b1001100011000000 r
b1001100011000000 s
b1100110001100000 h
b1100110001100000 i
b110011000110000 ^
b110011000110000 _
b1011001100011000 T
b1011001100011000 U
b101100110001100 J
b101100110001100 K
b1010110011000110 @
b1010110011000110 A
b1010110011000110 %
b1010110011000110 $#
b1000010011110011 =
b1000010011110100 G
b1000010011110101 Q
b1000010011111000 [
b1000010011111101 e
b1000010100001000 o
b1000010100011110 y
b1000010101001001 %"
b1000010110011111 /"
b1000011001001100 9"
b1000011110100110 C"
b1000101001011001 M"
b1000111110111111 W"
b1001101010001011 a"
b1011000000100100 k"
b1101101101010110 u"
b1000010011110011 !#
b111101100001101 *
b111101100001101 4
b111101100001101 8
b111101100001101 B
b111101100001101 L
b111101100001101 V
b111101100001101 `
b111101100001101 j
b111101100001101 t
b111101100001101 ~
b111101100001101 *"
b111101100001101 4"
b111101100001101 >"
b111101100001101 H"
b111101100001101 R"
b111101100001101 \"
b111101100001101 f"
b111101100001101 p"
b111101100001101 z"
b101011001100011 7
b101011001100011 )
b101011001100011 3
b101011001100011 y"
#128000
b101 .
b100 /
b101011001100011 (
#130000
b1 "
b1 6
b1 w"
0t"
b1010100101000 !
b1010100101000 5
b1010100101000 v"
b1001100110001101 s"
b100110011000110 l"
b100110011000110 r"
b100110011000 N"
b100110011000 T"
b10011001100011 b"
b10011001100011 h"
b100110011000110 i"
b100110011000 K"
b1001100110001 X"
b1001100110001 ^"
b10011001100011 _"
b1001100110001 U"
b100000000000000 d"
b100000000000000 e"
b10011001100 D"
b10011001100 J"
b1010000000000000 Z"
b1010000000000000 ["
b1001100110 :"
b1001100110 @"
b10011001100 A"
b1101000000000000 P"
b1101000000000000 Q"
b100110011 0"
b100110011 6"
b1001100110 7"
b110100000000000 F"
b110100000000000 G"
b1001 \
b1001 b
b10011001 &"
b10011001 ,"
b100110011 -"
b11010000000000 <"
b11010000000000 ="
b1001 Y
b1001100 z
b1001100 ""
b10011001 #"
b1101000000000 2"
b1101000000000 3"
b100110 p
b100110 v
b1001100 w
b1000110100000000 ("
b1000110100000000 )"
b100 R
b100 X
b10011 f
b10011 l
b100110 m
b1100011010000000 |
b1100011010000000 }
b100 O
b10011 c
b110001101000000 r
b110001101000000 s
b11000110100000 h
b11000110100000 i
b10 H
b10 N
b1001100011010000 ^
b1001100011010000 _
b1 >
b1 D
b10 E
b1100110001101000 T
b1100110001101000 U
b1 #
b1 "#
b1 ;
b110011000110100 J
b110011000110100 K
b1 }"
b11001100011010 @
b11001100011010 A
b11001100011010 %
b11001100011010 $#
b111101110011100 =
b111101110011101 G
b111101110011111 Q
b111101110100100 [
b111101110101110 e
b111101111000001 o
b111101111100111 y
b111110000110100 %"
b111110011001110 /"
b111111000000001 9"
b1000000001100111 C"
b1000010100110011 M"
b1000111011001100 W"
b1010000111111110 a"
b1100100001100001 k"
b1010100101000 u"
b111101110011100 !#
b1000010001100101 *
b1000010001100101 4
b1000010001100101 8
b1000010001100101 B
b1000010001100101 L
b1000010001100101 V
b1000010001100101 `
b1000010001100101 j
b1000010001100101 t
b1000010001100101 ~
b1000010001100101 *"
b1000010001100101 4"
b1000010001100101 >"
b1000010001100101 H"
b1000010001100101 R"
b1000010001100101 \"
b1000010001100101 f"
b1000010001100101 p"
b1000010001100101 z"
b1001100110001101 7
b1001100110001101 )
b1001100110001101 3
b1001100110001101 y"
#138000
b111 .
b110 /
b1 '
b1010100101000 (
#140000
b1010010000 D"
b1010010000 J"
b10100100001001 l"
b10100100001001 r"
b101001000010010 s"
b1010010000 A"
b1010010000100 b"
b1010010000100 h"
b10100100001001 i"
b101001000010 X"
b101001000010 ^"
b1010010000100 _"
b0 n"
b0 o"
b101001000 :"
b101001000 @"
b10100100001 N"
b10100100001 T"
b101001000010 U"
b1000000000000000 d"
b1000000000000000 e"
b101001000 7"
b10100100001 K"
b100000000000000 Z"
b100000000000000 ["
b10000000000000 P"
b10000000000000 Q"
b10100100 0"
b10100100 6"
b1001000000000000 F"
b1001000000000000 G"
b101 \
b101 b
b10100 p
b10100 v
b1010010 &"
b1010010 ,"
b10100100 -"
b100100000000000 <"
b100100000000000 ="
b101 Y
b10100 m
b101001 z
b101001 ""
b1010010 #"
b10010000000000 2"
b10010000000000 3"
b101001 w
b1001000000000 ("
b1001000000000 )"
b10 R
b10 X
b1010 f
b1010 l
b100100000000 |
b100100000000 }
b10 O
b1010 c
b1000010010000000 r
b1000010010000000 s
b100001001000000 h
b100001001000000 i
b1 H
b1 N
b10000100100000 ^
b10000100100000 _
b0 >
b0 D
b1 E
b1001000010010000 T
b1001000010010000 U
b0 #
b0 "#
b0 "
b0 6
b101001000010010 !
b101001000010010 5
b0 ;
b100100001001000 J
b100100001001000 K
b0 }"
b0 w"
b101001000010010 v"
b1010010000100100 @
b1010010000100100 A
b1010010000100100 %
b1010010000100100 $#
b1110011111111 =
b1110100000000 G
b1110100000001 Q
b1110100000100 [
b1110100001001 e
b1110100010011 o
b1110100101000 y
b1110101010001 %"
b1110110100011 /"
b1111001000111 9"
b1111110001111 C"
b10001000100000 M"
b10011101000001 W"
b11000110000011 a"
b100011000001000 k"
1t"
b110111100010001 u"
b1110011111111 !#
b1110001100000001 *
b1110001100000001 4
b1110001100000001 8
b1110001100000001 B
b1110001100000001 L
b1110001100000001 V
b1110001100000001 `
b1110001100000001 j
b1110001100000001 t
b1110001100000001 ~
b1110001100000001 *"
b1110001100000001 4"
b1110001100000001 >"
b1110001100000001 H"
b1110001100000001 R"
b1110001100000001 \"
b1110001100000001 f"
b1110001100000001 p"
b1110001100000001 z"
b101001000010010 7
b101001000010010 )
b101001000010010 3
b101001000010010 y"
#148000
b1001 .
b1000 /
b101001000010010 (
b0 '
#150000
b11001101000 D"
b11001101000 J"
b1100110100001101 !
b1100110100001101 5
b11001101000 A"
b1100110100001101 v"
b110011010000110 l"
b110011010000110 r"
b1100110100001101 s"
b1100110100 :"
b1100110100 @"
b11001101000011 b"
b11001101000011 h"
b110011010000110 i"
b1100110100 7"
b1100110100001 X"
b1100110100001 ^"
b11001101000011 _"
b1000000000000000 n"
b1000000000000000 o"
b110011010000 N"
b110011010000 T"
b1100110100001 U"
b100000000000000 d"
b100000000000000 e"
b110011010 0"
b110011010 6"
b110011010000 K"
b1010000000000000 Z"
b1010000000000000 ["
b110011010 -"
b1101000000000000 P"
b1101000000000000 Q"
b110100000000000 F"
b110100000000000 G"
b11001101 &"
b11001101 ,"
b11010000000000 <"
b11010000000000 ="
b110 R
b110 X
b1100110 z
b1100110 ""
b11001101 #"
b1101000000000 2"
b1101000000000 3"
b110 O
b110011 p
b110011 v
b1100110 w
b110100000000 ("
b110100000000 )"
b11001 f
b11001 l
b110011 m
b1000011010000000 |
b1000011010000000 }
b11 H
b11 N
b1100 \
b1100 b
b11001 c
b100001101000000 r
b100001101000000 s
b11 E
b1100 Y
b1010000110100000 h
b1010000110100000 i
b1101000011010000 ^
b1101000011010000 _
b1 >
b1 D
b110100001101000 T
b110100001101000 U
b1 #
b1 "#
b1 ;
b11010000110100 J
b11010000110100 K
b1 }"
b1001101000011010 @
b1001101000011010 A
b1001101000011010 %
b1001101000011010 $#
b111010001011 =
b111010001101 G
b111010010000 Q
b111010010110 [
b111010100011 e
b111010111101 o
b111011110000 y
b111101010111 %"
b1000000100100 /"
b1000110111110 9"
b1010011110010 C"
b1101101011010 M"
b10100000101011 W"
b100000111001101 a"
b111010100010000 k"
b1101101110010111 u"
b111010001011 !#
b1111000101110110 *
b1111000101110110 4
b1111000101110110 8
b1111000101110110 B
b1111000101110110 L
b1111000101110110 V
b1111000101110110 `
b1111000101110110 j
b1111000101110110 t
b1111000101110110 ~
b1111000101110110 *"
b1111000101110110 4"
b1111000101110110 >"
b1111000101110110 H"
b1111000101110110 R"
b1111000101110110 \"
b1111000101110110 f"
b1111000101110110 p"
b1111000101110110 z"
b1100110100001101 7
b1100110100001101 )
b1100110100001101 3
b1100110100001101 y"
#158000
b1011 .
b1010 /
b1100110100001101 (
#160000
b110011010011110 i"
b11001101001111 b"
b11001101001111 h"
b11001101001111 _"
b1100110100111 X"
b1100110100111 ^"
b1100110100111 U"
b110011010011 N"
b110011010011 T"
b11001101001 D"
b11001101001 J"
b110011010011 K"
b11001101001 A"
b1110100000000000 F"
b1110100000000000 G"
b1111010000000000 <"
b1111010000000000 ="
b111101000000000 2"
b111101000000000 3"
b11110100000000 ("
b11110100000000 )"
b1001111010000000 |
b1001111010000000 }
b100111101000000 r
b100111101000000 s
b1010011110100000 h
b1010011110100000 i
b1101001111010000 ^
b1101001111010000 _
b1110101100011 s"
b110100111101000 T
b110100111101000 U
b10 "
b10 6
b1110101100011 !
b1110101100011 5
b11010011110100 J
b11010011110100 K
b1 m"
b1 q"
b111010110001 l"
b111010110001 r"
b10 w"
b1110101100011 v"
b1001101001111010 @
b1001101001111010 A
b1001101001111010 %
b1001101001111010 $#
b1010100000010100 =
b1010100000010110 G
b1010100000011001 Q
b1010100000011111 [
b1010100000101100 e
b1010100001000110 o
b1010100001111001 y
b1010100011100000 %"
b1010100110101101 /"
b1010101101000111 9"
b1010111001111100 C"
b1011010011100110 M"
b1100000110111010 W"
b1101101101100010 a"
0j"
b111010110001 k"
1t"
b1100010101110110 u"
b1010100000010100 !#
b101011111101101 *
b101011111101101 4
b101011111101101 8
b101011111101101 B
b101011111101101 L
b101011111101101 V
b101011111101101 `
b101011111101101 j
b101011111101101 t
b101011111101101 ~
b101011111101101 *"
b101011111101101 4"
b101011111101101 >"
b101011111101101 H"
b101011111101101 R"
b101011111101101 \"
b101011111101101 f"
b101011111101101 p"
b101011111101101 z"
b1100110100111101 7
b1100110100111101 )
b1100110100111101 3
b1100110100111101 y"
#168000
b1101 .
b1100 /
b10 '
b1110101100011 (
#170000
0t"
b111101111000110 i"
b11110111100011 b"
b11110111100011 h"
b11110111100011 _"
b1111011110001 X"
b1111011110001 ^"
b1111011110001 U"
b0 n"
b0 o"
b1111011110 :"
b1111011110 @"
b111101111000 N"
b111101111000 T"
b0 d"
b0 e"
b1111011110 7"
b11110111100 D"
b11110111100 J"
b111101111000 K"
b1000000000000000 Z"
b1000000000000000 ["
b11110111 &"
b11110111 ,"
b11110111100 A"
b1100000000000000 P"
b1100000000000000 Q"
b11110111 #"
b111101111 0"
b111101111 6"
b110000000000000 F"
b110000000000000 G"
b111101 p
b111101 v
b111101111 -"
b11000000000000 <"
b11000000000000 ="
b111101 m
b1111011 z
b1111011 ""
b1100000000000 2"
b1100000000000 3"
b1111011 w
b1000110000000000 ("
b1000110000000000 )"
b11110 f
b11110 l
b1100011000000000 |
b1100011000000000 }
b1111 \
b1111 b
b11110 c
b1110001100000000 r
b1110001100000000 s
b110110010011 !
b110110010011 5
b111 R
b111 X
b1111 Y
b1111000110000000 h
b1111000110000000 i
b1 "
b1 6
b110110010011 v"
b111 O
b111100011000000 ^
b111100011000000 _
b1 w"
b1111011110001100 s"
b1011110001100000 T
b1011110001100000 U
b1101111000110000 J
b1101111000110000 K
b0 m"
b0 q"
b111101111000110 l"
b111101111000110 r"
b1110111100011000 @
b1110111100011000 A
b1110111100011000 %
b1110111100011000 $#
b1011000001000 =
b1011000001010 G
b1011000001110 Q
b1011000010110 [
b1011000100101 e
b1011001000100 o
b1011010000010 y
b1011011111110 %"
b1011111110110 /"
b1100111100101 9"
b1110111000011 C"
b10010101111111 M"
b11010011111000 W"
b101001111101010 a"
1j"
b1001000111001101 k"
b110110010011 u"
b1011000001000 !#
b1110100111111001 *
b1110100111111001 4
b1110100111111001 8
b1110100111111001 B
b1110100111111001 L
b1110100111111001 V
b1110100111111001 `
b1110100111111001 j
b1110100111111001 t
b1110100111111001 ~
b1110100111111001 *"
b1110100111111001 4"
b1110100111111001 >"
b1110100111111001 H"
b1110100111111001 R"
b1110100111111001 \"
b1110100111111001 f"
b1110100111111001 p"
b1110100111111001 z"
b1111011110001100 7
b1111011110001100 )
b1111011110001100 3
b1111011110001100 y"
#178000
b1111 .
b1110 /
b110110010011 (
b1 '
